{
	"type": "object",
	"version": "0.0.2",
	"animations": {
		"list": [
			{
				"name": "idle-down",
				"frames": [
					{
						"id": "cfcf211b-d0a9-11ea-8988-e9877d5d48b4",
						"type": "image",
						"ext": "png",
						"image_name": "armi-2",
						"data_path": "image/army/armi-2.png",
						"folder_name": "army",
						"width": 31,
						"height": 36
					}
				],
				"duration": "100"
			},
			{
				"name": "idle-right",
				"frames": [
					{
						"id": "cfcf2115-d0a9-11ea-8988-e9877d5d48b4",
						"type": "image",
						"ext": "png",
						"image_name": "armi-8",
						"data_path": "image/army/armi-8.png",
						"folder_name": "army",
						"width": 31,
						"height": 36
					}
				],
				"duration": "100"
			},
			{
				"name": "idle-left",
				"frames": [
					{
						"id": "cfcf2112-d0a9-11ea-8988-e9877d5d48b4",
						"type": "image",
						"ext": "png",
						"image_name": "armi-5",
						"data_path": "image/army/armi-5.png",
						"folder_name": "army",
						"width": 31,
						"height": 36
					}
				],
				"duration": "100"
			},
			{
				"name": "walk-down",
				"frames": [
					{
						"id": "cfcf211a-d0a9-11ea-8988-e9877d5d48b4",
						"type": "image",
						"ext": "png",
						"image_name": "armi-1",
						"data_path": "image/army/armi-1.png",
						"folder_name": "army",
						"width": 31,
						"height": 36
					},
					{
						"id": "cfcf211b-d0a9-11ea-8988-e9877d5d48b4",
						"type": "image",
						"ext": "png",
						"image_name": "armi-2",
						"data_path": "image/army/armi-2.png",
						"folder_name": "army",
						"width": 31,
						"height": 36
					},
					{
						"id": "cfcf2110-d0a9-11ea-8988-e9877d5d48b4",
						"type": "image",
						"ext": "png",
						"image_name": "armi-3",
						"data_path": "image/army/armi-3.png",
						"folder_name": "army",
						"width": 31,
						"height": 36
					}
				],
				"duration": "100"
			},
			{
				"name": "walk-left",
				"frames": [
					{
						"id": "cfcf2111-d0a9-11ea-8988-e9877d5d48b4",
						"type": "image",
						"ext": "png",
						"image_name": "armi-4",
						"data_path": "image/army/armi-4.png",
						"folder_name": "army",
						"width": 31,
						"height": 36
					},
					{
						"id": "cfcf2112-d0a9-11ea-8988-e9877d5d48b4",
						"type": "image",
						"ext": "png",
						"image_name": "armi-5",
						"data_path": "image/army/armi-5.png",
						"folder_name": "army",
						"width": 31,
						"height": 36
					},
					{
						"id": "cfcf2113-d0a9-11ea-8988-e9877d5d48b4",
						"type": "image",
						"ext": "png",
						"image_name": "armi-6",
						"data_path": "image/army/armi-6.png",
						"folder_name": "army",
						"width": 31,
						"height": 36
					}
				],
				"duration": "100"
			},
			{
				"name": "walk-right",
				"frames": [
					{
						"id": "cfcf2114-d0a9-11ea-8988-e9877d5d48b4",
						"type": "image",
						"ext": "png",
						"image_name": "armi-7",
						"data_path": "image/army/armi-7.png",
						"folder_name": "army",
						"width": 31,
						"height": 36
					},
					{
						"id": "cfcf2115-d0a9-11ea-8988-e9877d5d48b4",
						"type": "image",
						"ext": "png",
						"image_name": "armi-8",
						"data_path": "image/army/armi-8.png",
						"folder_name": "army",
						"width": 31,
						"height": 36
					},
					{
						"id": "cfcf2116-d0a9-11ea-8988-e9877d5d48b4",
						"type": "image",
						"ext": "png",
						"image_name": "armi-9",
						"data_path": "image/army/armi-9.png",
						"folder_name": "army",
						"width": 31,
						"height": 36
					}
				],
				"duration": "100"
			},
			{
				"name": "walk-up",
				"frames": [
					{
						"id": "cfcf2117-d0a9-11ea-8988-e9877d5d48b4",
						"type": "image",
						"ext": "png",
						"image_name": "armi-10",
						"data_path": "image/army/armi-10.png",
						"folder_name": "army",
						"width": 31,
						"height": 36
					},
					{
						"id": "cfcf2118-d0a9-11ea-8988-e9877d5d48b4",
						"type": "image",
						"ext": "png",
						"image_name": "armi-11",
						"data_path": "image/army/armi-11.png",
						"folder_name": "army",
						"width": 31,
						"height": 36
					},
					{
						"id": "cfcf2119-d0a9-11ea-8988-e9877d5d48b4",
						"type": "image",
						"ext": "png",
						"image_name": "armi-12",
						"data_path": "image/army/armi-12.png",
						"folder_name": "army",
						"width": 31,
						"height": 36
					}
				],
				"duration": "100"
			},
			{
				"name": "idle-up",
				"frames": [
					{
						"id": "cfcf2118-d0a9-11ea-8988-e9877d5d48b4",
						"type": "image",
						"ext": "png",
						"image_name": "armi-11",
						"data_path": "image/army/armi-11.png",
						"folder_name": "army",
						"width": 31,
						"height": 36
					}
				],
				"duration": "100"
			}
		],
		"default": null
	},
	"images": {
		"list": [
			{
				"id": "cfcf211a-d0a9-11ea-8988-e9877d5d48b4",
				"type": "image",
				"ext": "png",
				"image_name": "armi-1",
				"data_path": "image/army/armi-1.png",
				"folder_name": "army",
				"width": 31,
				"height": 36
			},
			{
				"id": "cfcf211b-d0a9-11ea-8988-e9877d5d48b4",
				"type": "image",
				"ext": "png",
				"image_name": "armi-2",
				"data_path": "image/army/armi-2.png",
				"folder_name": "army",
				"width": 31,
				"height": 36
			},
			{
				"id": "cfcf2110-d0a9-11ea-8988-e9877d5d48b4",
				"type": "image",
				"ext": "png",
				"image_name": "armi-3",
				"data_path": "image/army/armi-3.png",
				"folder_name": "army",
				"width": 31,
				"height": 36
			},
			{
				"id": "cfcf2111-d0a9-11ea-8988-e9877d5d48b4",
				"type": "image",
				"ext": "png",
				"image_name": "armi-4",
				"data_path": "image/army/armi-4.png",
				"folder_name": "army",
				"width": 31,
				"height": 36
			},
			{
				"id": "cfcf2112-d0a9-11ea-8988-e9877d5d48b4",
				"type": "image",
				"ext": "png",
				"image_name": "armi-5",
				"data_path": "image/army/armi-5.png",
				"folder_name": "army",
				"width": 31,
				"height": 36
			},
			{
				"id": "cfcf2113-d0a9-11ea-8988-e9877d5d48b4",
				"type": "image",
				"ext": "png",
				"image_name": "armi-6",
				"data_path": "image/army/armi-6.png",
				"folder_name": "army",
				"width": 31,
				"height": 36
			},
			{
				"id": "cfcf2114-d0a9-11ea-8988-e9877d5d48b4",
				"type": "image",
				"ext": "png",
				"image_name": "armi-7",
				"data_path": "image/army/armi-7.png",
				"folder_name": "army",
				"width": 31,
				"height": 36
			},
			{
				"id": "cfcf2115-d0a9-11ea-8988-e9877d5d48b4",
				"type": "image",
				"ext": "png",
				"image_name": "armi-8",
				"data_path": "image/army/armi-8.png",
				"folder_name": "army",
				"width": 31,
				"height": 36
			},
			{
				"id": "cfcf2116-d0a9-11ea-8988-e9877d5d48b4",
				"type": "image",
				"ext": "png",
				"image_name": "armi-9",
				"data_path": "image/army/armi-9.png",
				"folder_name": "army",
				"width": 31,
				"height": 36
			},
			{
				"id": "cfcf2117-d0a9-11ea-8988-e9877d5d48b4",
				"type": "image",
				"ext": "png",
				"image_name": "armi-10",
				"data_path": "image/army/armi-10.png",
				"folder_name": "army",
				"width": 31,
				"height": 36
			},
			{
				"id": "cfcf2118-d0a9-11ea-8988-e9877d5d48b4",
				"type": "image",
				"ext": "png",
				"image_name": "armi-11",
				"data_path": "image/army/armi-11.png",
				"folder_name": "army",
				"width": 31,
				"height": 36
			},
			{
				"id": "cfcf2119-d0a9-11ea-8988-e9877d5d48b4",
				"type": "image",
				"ext": "png",
				"image_name": "armi-12",
				"data_path": "image/army/armi-12.png",
				"folder_name": "army",
				"width": 31,
				"height": 36
			}
		]
	},
	"image": "cfcf211a-d0a9-11ea-8988-e9877d5d48b4",
	"shapes": [
		{
			"type": "rect",
			"points": [
				[0,0],
				[100,100]
			]
		},
		{
			"type": "rect",
			"points": [
				[0,0],
				[100,100]
			]
		}
	],
	"collisionMask": [
		"ALL_OBJECT"
	],
	"event": "<xml xmlns=\"http://www.w3.org/1999/xhtml\"><variables><variable type=\"\" id=\"9L]]~lmP/t28rr(hs]9N\">variable</variable></variables></xml>",
	"variables": [
		{
			"name": "variable",
			"description": "",
			"public": true,
			"init": false
		}
	],
	"userCode": {
		"global": [
			" "
		],
		"pre-super": [
			"        "
		],
		"init": [
			"        this.state = {};",
			"        ",
			"        this.nameText = me.pool.pull(\"me.Text\", this.pos.x, this.pos.y - 130, {",
			"            font: \"Arial\", ",
			"            size: \"50px\", ",
			"            fillStyle: \"#FF0000\",",
			"            lineHeight: 1.3,",
			"            textBaseline: \"middle\",",
			"            textAlign: \"left\",",
			"            anchorPoint: {x: 0.5, y: 0.5}",
			"        });",
			"        me.game.world.addChild(this.nameText, 102);",
			"        this.nameText.setText(settings.id);",
			"        ",
			"        this.hptext = me.pool.pull(\"me.Text\", this.pos.x, this.pos.y - 25, {",
			"                font: \"Arial\", ",
			"                size: \"30px\", ",
			"                fillStyle: \"#FF0000\",",
			"                lineHeight: 1.3,",
			"                textBaseline: \"middle\",",
			"                textAlign: \"left\",",
			"                anchorPoint: {x: 0.5, y: 0.5}",
			"            });",
			"        me.game.world.addChild(this.hptext, 102);",
			"        this.hptext.setText(settings.hp);",
			"        this.hp = settings.hp;"
		],
		"update": [
			"            this.nameText.pos.x =  this.pos.x;",
			"            this.nameText.pos.y = this.pos.y-50;",
			"            ",
			"            this.hptext.pos.x =  this.pos.x;",
			"            this.hptext.pos.y = this.pos.y-20;",
			"            ",
			"            if(this.state.left){",
			"                if (!this.isCurrentAnimation(\"walk-left\")) {",
			"                    this.setCurrentAnimation(\"walk-left\");",
			"                }",
			"            }",
			"            else if(this.state.right){",
			"                if (!this.isCurrentAnimation(\"walk-right\")) {",
			"                    this.setCurrentAnimation(\"walk-right\");",
			"                }",
			"            }",
			"            else if(this.state.up){",
			"                if (!this.isCurrentAnimation(\"walk-up\")) {",
			"                    this.setCurrentAnimation(\"walk-up\");",
			"                }",
			"            }",
			"            else if(this.state.down){",
			"                if (!this.isCurrentAnimation(\"walk-down\")) {",
			"                    this.setCurrentAnimation(\"walk-down\");",
			"                }",
			"            }else{",
			"                if(this.state.up == true){",
			"                    this.setCurrentAnimation(\"idle-up\");",
			"                }if(this.state.down == true){",
			"                    this.setCurrentAnimation(\"idle-down\");",
			"                }",
			"                if(this.state.left == true){",
			"                    this.setCurrentAnimation(\"idle-left\");",
			"                }if(this.state.right == true){",
			"                    this.setCurrentAnimation(\"idle-right\");",
			"                }   ",
			"            }",
			"            ",
			"        this.state = {};",
			"        this.hptext.setText(this.hp);"
		],
		"onCollision": [
			"        isSolid = false;",
			"        // if (other.body.collisionType === game.collisionTypes.PROJECTILE_OBJECT) {",
			"        //     console.log(\"peluru kena enemy \");",
			"        // }"
		],
		"onDraw": [
			"        "
		],
		"onActivateEvent": [
			"        "
		],
		"onDeactivateEvent": [
			"    me.game.world.removeChild(this.nameText);",
			"    me.game.world.removeChild(this.hptext);"
		],
		"userFunction": [
			"    "
		],
		"global-end": [
			" "
		]
	},
	"frameWidth": 100,
	"frameHeight": 100,
	"width": 100,
	"height": 100,
	"hasBody": true,
	"alpha": 1,
	"flipX": false,
	"flipY": false,
	"floating": false,
	"relativeX": "0",
	"relativeY": "0",
	"anchorX": 0,
	"anchorY": 0,
	"followed": "NONE",
	"alwaysUpdate": false,
	"updateWhenPaused": false,
	"isPersistent": false,
	"click": false,
	"keyUp": false,
	"keyDown": false,
	"collisionCheck": true,
	"gravityX": 0,
	"gravityY": 0,
	"collisionType": "ENEMY_OBJECT"
}