{
	"type": "object",
	"version": "0.0.2",
	"animations": {
		"list": [],
		"default": null
	},
	"images": {
		"list": [
			{
				"id": "eac77890-d163-11ea-b95f-153ed0362bd0",
				"type": "image",
				"ext": "png",
				"image_name": "ammo",
				"data_path": "image/ammo.png",
				"folder_name": "",
				"width": 31,
				"height": 36
			}
		]
	},
	"image": "eac77890-d163-11ea-b95f-153ed0362bd0",
	"shapes": [
		{
			"type": "rect",
			"points": [
				[0,0],
				[31,36]
			]
		}
	],
	"collisionMask": [
		"ALL_OBJECT"
	],
	"event": "<xml xmlns=\"http://www.w3.org/1999/xhtml\"><variables><variable type=\"\" id=\"ukydK`o1o*l;o+RcC=MU\">variable</variable></variables></xml>",
	"variables": [
		{
			"name": "variable",
			"description": "",
			"public": true,
			"init": false
		}
	],
	"userCode": {
		"global": [
			" "
		],
		"pre-super": [
			"        "
		],
		"init": [
			"        this.state = {};"
		],
		"update": [
			"        this.state = {};",
			"        ",
			"        let limitHeight = 0,",
			"\t\t    limitWidthLeft  = 0,",
			"\t\t    limitWidthRight = 1920,",
			"\t\t    limitbawah = 1080;",
			"\t\t    ",
			"        if (this.pos.y < limitHeight) { //limit Atas",
			"\t\t    me.game.world.removeChild(this);",
			"\t\t    return false;",
			"        }",
			"        if (this.pos.x < limitWidthLeft) { //limit Kiri",
			"\t\t    me.game.world.removeChild(this);",
			"\t\t    return false;",
			"        }",
			"        if (this.pos.x > limitWidthRight) { //limit Kanan",
			"\t\t    me.game.world.removeChild(this);",
			"\t\t    return false;",
			"        }",
			"        if (this.pos.y > limitbawah) { //limit Kanan",
			"\t\t    me.game.world.removeChild(this);",
			"\t\t    return false;",
			"        }"
		],
		"onCollision": [
			"        isSolid = false;",
			"        if (other.body.collisionType === game.collisionTypes.PLAYER_OBJECT) {",
			"            //delete game.data.pelurulist[game.data.playerId];",
			"            me.game.world.removeChild(this);",
			"        }"
		],
		"onDraw": [
			"        "
		],
		"onActivateEvent": [
			"        "
		],
		"onDeactivateEvent": [
			"        "
		],
		"userFunction": [
			"    "
		],
		"global-end": [
			" "
		]
	},
	"frameWidth": 31,
	"frameHeight": 36,
	"width": 100,
	"height": 100,
	"hasBody": true,
	"alpha": 1,
	"flipX": false,
	"flipY": false,
	"floating": false,
	"relativeX": "0",
	"relativeY": "0",
	"anchorX": 0,
	"anchorY": 0,
	"followed": "NONE",
	"alwaysUpdate": false,
	"updateWhenPaused": false,
	"isPersistent": false,
	"click": false,
	"keyUp": false,
	"keyDown": false,
	"collisionCheck": true,
	"gravityX": 0,
	"gravityY": 0,
	"collisionType": "PROJECTILE_OBJECT"
}