{
	"type": "object",
	"version": "0.0.2",
	"animations": {
		"list": [
			{
				"name": "idle-bot",
				"frames": [
					{
						"id": "cfcf211b-d0a9-11ea-8988-e9877d5d48b4",
						"type": "image",
						"ext": "png",
						"image_name": "armi-2",
						"data_path": "image/army/armi-2.png",
						"folder_name": "army",
						"width": 31,
						"height": 36
					}
				],
				"duration": "100"
			},
			{
				"name": "idle-up",
				"frames": [
					{
						"id": "cfcf2118-d0a9-11ea-8988-e9877d5d48b4",
						"type": "image",
						"ext": "png",
						"image_name": "armi-11",
						"data_path": "image/army/armi-11.png",
						"folder_name": "army",
						"width": 31,
						"height": 36
					}
				],
				"duration": "100"
			},
			{
				"name": "idle-L",
				"frames": [
					{
						"id": "cfcf2112-d0a9-11ea-8988-e9877d5d48b4",
						"type": "image",
						"ext": "png",
						"image_name": "armi-5",
						"data_path": "image/army/armi-5.png",
						"folder_name": "army",
						"width": 31,
						"height": 36
					}
				],
				"duration": "100"
			},
			{
				"name": "idle-R",
				"frames": [
					{
						"id": "cfcf2115-d0a9-11ea-8988-e9877d5d48b4",
						"type": "image",
						"ext": "png",
						"image_name": "armi-8",
						"data_path": "image/army/armi-8.png",
						"folder_name": "army",
						"width": 31,
						"height": 36
					}
				],
				"duration": "100"
			},
			{
				"name": "walk-bot",
				"frames": [
					{
						"id": "cfcf211a-d0a9-11ea-8988-e9877d5d48b4",
						"type": "image",
						"ext": "png",
						"image_name": "armi-1",
						"data_path": "image/army/armi-1.png",
						"folder_name": "army",
						"width": 31,
						"height": 36
					},
					{
						"id": "cfcf211b-d0a9-11ea-8988-e9877d5d48b4",
						"type": "image",
						"ext": "png",
						"image_name": "armi-2",
						"data_path": "image/army/armi-2.png",
						"folder_name": "army",
						"width": 31,
						"height": 36
					},
					{
						"id": "cfcf2110-d0a9-11ea-8988-e9877d5d48b4",
						"type": "image",
						"ext": "png",
						"image_name": "armi-3",
						"data_path": "image/army/armi-3.png",
						"folder_name": "army",
						"width": 31,
						"height": 36
					}
				],
				"duration": "100"
			},
			{
				"name": "walk-top",
				"frames": [
					{
						"id": "cfcf2117-d0a9-11ea-8988-e9877d5d48b4",
						"type": "image",
						"ext": "png",
						"image_name": "armi-10",
						"data_path": "image/army/armi-10.png",
						"folder_name": "army",
						"width": 31,
						"height": 36
					},
					{
						"id": "cfcf2118-d0a9-11ea-8988-e9877d5d48b4",
						"type": "image",
						"ext": "png",
						"image_name": "armi-11",
						"data_path": "image/army/armi-11.png",
						"folder_name": "army",
						"width": 31,
						"height": 36
					},
					{
						"id": "cfcf2119-d0a9-11ea-8988-e9877d5d48b4",
						"type": "image",
						"ext": "png",
						"image_name": "armi-12",
						"data_path": "image/army/armi-12.png",
						"folder_name": "army",
						"width": 31,
						"height": 36
					}
				],
				"duration": "100"
			},
			{
				"name": "walk-L",
				"frames": [
					{
						"id": "cfcf2111-d0a9-11ea-8988-e9877d5d48b4",
						"type": "image",
						"ext": "png",
						"image_name": "armi-4",
						"data_path": "image/army/armi-4.png",
						"folder_name": "army",
						"width": 31,
						"height": 36
					},
					{
						"id": "cfcf2112-d0a9-11ea-8988-e9877d5d48b4",
						"type": "image",
						"ext": "png",
						"image_name": "armi-5",
						"data_path": "image/army/armi-5.png",
						"folder_name": "army",
						"width": 31,
						"height": 36
					},
					{
						"id": "cfcf2113-d0a9-11ea-8988-e9877d5d48b4",
						"type": "image",
						"ext": "png",
						"image_name": "armi-6",
						"data_path": "image/army/armi-6.png",
						"folder_name": "army",
						"width": 31,
						"height": 36
					}
				],
				"duration": "100"
			},
			{
				"name": "walk-R",
				"frames": [
					{
						"id": "cfcf2114-d0a9-11ea-8988-e9877d5d48b4",
						"type": "image",
						"ext": "png",
						"image_name": "armi-7",
						"data_path": "image/army/armi-7.png",
						"folder_name": "army",
						"width": 31,
						"height": 36
					},
					{
						"id": "cfcf2115-d0a9-11ea-8988-e9877d5d48b4",
						"type": "image",
						"ext": "png",
						"image_name": "armi-8",
						"data_path": "image/army/armi-8.png",
						"folder_name": "army",
						"width": 31,
						"height": 36
					},
					{
						"id": "cfcf2116-d0a9-11ea-8988-e9877d5d48b4",
						"type": "image",
						"ext": "png",
						"image_name": "armi-9",
						"data_path": "image/army/armi-9.png",
						"folder_name": "army",
						"width": 31,
						"height": 36
					}
				],
				"duration": "100"
			}
		],
		"default": null
	},
	"images": {
		"list": [
			{
				"id": "cfcf211a-d0a9-11ea-8988-e9877d5d48b4",
				"type": "image",
				"ext": "png",
				"image_name": "armi-1",
				"data_path": "image/army/armi-1.png",
				"folder_name": "army",
				"width": 31,
				"height": 36
			},
			{
				"id": "cfcf2117-d0a9-11ea-8988-e9877d5d48b4",
				"type": "image",
				"ext": "png",
				"image_name": "armi-10",
				"data_path": "image/army/armi-10.png",
				"folder_name": "army",
				"width": 31,
				"height": 36
			},
			{
				"id": "cfcf2118-d0a9-11ea-8988-e9877d5d48b4",
				"type": "image",
				"ext": "png",
				"image_name": "armi-11",
				"data_path": "image/army/armi-11.png",
				"folder_name": "army",
				"width": 31,
				"height": 36
			},
			{
				"id": "cfcf2119-d0a9-11ea-8988-e9877d5d48b4",
				"type": "image",
				"ext": "png",
				"image_name": "armi-12",
				"data_path": "image/army/armi-12.png",
				"folder_name": "army",
				"width": 31,
				"height": 36
			},
			{
				"id": "cfcf211b-d0a9-11ea-8988-e9877d5d48b4",
				"type": "image",
				"ext": "png",
				"image_name": "armi-2",
				"data_path": "image/army/armi-2.png",
				"folder_name": "army",
				"width": 31,
				"height": 36
			},
			{
				"id": "cfcf2110-d0a9-11ea-8988-e9877d5d48b4",
				"type": "image",
				"ext": "png",
				"image_name": "armi-3",
				"data_path": "image/army/armi-3.png",
				"folder_name": "army",
				"width": 31,
				"height": 36
			},
			{
				"id": "cfcf2111-d0a9-11ea-8988-e9877d5d48b4",
				"type": "image",
				"ext": "png",
				"image_name": "armi-4",
				"data_path": "image/army/armi-4.png",
				"folder_name": "army",
				"width": 31,
				"height": 36
			},
			{
				"id": "cfcf2112-d0a9-11ea-8988-e9877d5d48b4",
				"type": "image",
				"ext": "png",
				"image_name": "armi-5",
				"data_path": "image/army/armi-5.png",
				"folder_name": "army",
				"width": 31,
				"height": 36
			},
			{
				"id": "cfcf2113-d0a9-11ea-8988-e9877d5d48b4",
				"type": "image",
				"ext": "png",
				"image_name": "armi-6",
				"data_path": "image/army/armi-6.png",
				"folder_name": "army",
				"width": 31,
				"height": 36
			},
			{
				"id": "cfcf2114-d0a9-11ea-8988-e9877d5d48b4",
				"type": "image",
				"ext": "png",
				"image_name": "armi-7",
				"data_path": "image/army/armi-7.png",
				"folder_name": "army",
				"width": 31,
				"height": 36
			},
			{
				"id": "cfcf2115-d0a9-11ea-8988-e9877d5d48b4",
				"type": "image",
				"ext": "png",
				"image_name": "armi-8",
				"data_path": "image/army/armi-8.png",
				"folder_name": "army",
				"width": 31,
				"height": 36
			},
			{
				"id": "cfcf2116-d0a9-11ea-8988-e9877d5d48b4",
				"type": "image",
				"ext": "png",
				"image_name": "armi-9",
				"data_path": "image/army/armi-9.png",
				"folder_name": "army",
				"width": 31,
				"height": 36
			}
		]
	},
	"image": "cfcf211a-d0a9-11ea-8988-e9877d5d48b4",
	"shapes": [
		{
			"type": "rect",
			"points": [
				[0,0],
				[31,36]
			]
		}
	],
	"collisionMask": [
		"ALL_OBJECT"
	],
	"event": "<xml xmlns=\"http://www.w3.org/1999/xhtml\"><variables><variable type=\"\" id=\"0R/p{QeD_s{y_q1gQVr6\">variable</variable></variables></xml>",
	"variables": [
		{
			"name": "variable",
			"description": "",
			"public": true,
			"init": false
		}
	],
	"userCode": {
		"global": [
			" "
		],
		"pre-super": [
			"        "
		],
		"init": [
			"        me.input.bindKey(me.input.KEY.LEFT,  \"left\");",
			"        me.input.bindKey(me.input.KEY.RIGHT, \"right\");",
			"        me.input.bindKey(me.input.KEY.UP, \"up\");",
			"        me.input.bindKey(me.input.KEY.DOWN, \"down\");",
			"        me.input.bindKey(me.input.KEY.SPACE, \"space\", true);",
			"        ",
			"        this.state = {",
			"            left: false,",
			"            right : false,",
			"            up : false,",
			"            down : false",
			"        }",
			"        ",
			"        this.body.force.set(0, 0);",
			"        this.body.friction.set(0.5, 0);",
			"        this.body.setMaxVelocity(2, 2);",
			"        this.body.falling = false;",
			"        this.body.gravity.y = 0;",
			"        ",
			"        this.stateChanged = false;",
			"        ",
			"        this.nameText = me.pool.pull(\"me.Text\", this.pos.x, this.pos.y - 50, {",
			"                font: \"Arial\", ",
			"                size: \"40px\", ",
			"                fillStyle: \"#FF0000\",",
			"                lineHeight: 1.3,",
			"                textBaseline: \"middle\",",
			"                textAlign: \"left\",",
			"                anchorPoint: {x: 0.5, y: 0.5}",
			"            });",
			"        me.game.world.addChild(this.nameText, 102);",
			"        this.nameText.setText(settings.id);",
			"        ",
			"          ",
			"        this.hptext = me.pool.pull(\"me.Text\", this.pos.x, this.pos.y - 25, {",
			"                font: \"Arial\", ",
			"                size: \"30px\", ",
			"                fillStyle: \"#FF0000\",",
			"                lineHeight: 1.3,",
			"                textBaseline: \"middle\",",
			"                textAlign: \"left\",",
			"                anchorPoint: {x: 0.5, y: 0.5}",
			"            });",
			"        me.game.world.addChild(this.hptext, 102);",
			"        this.hptext.setText(settings.hp);",
			"        ",
			"        //console.log(this.hp)",
			"        //this.posisi = \"\";",
			"        this.totalhp = settings.hp;",
			"        this.onhit = false;"
		],
		"update": [
			"        this.stateChanged = false;",
			"        ",
			"        this.nameText.pos.x =  this.pos.x;",
			"        this.nameText.pos.y = this.pos.y-50;",
			"        ",
			"        this.hptext.pos.x =  this.pos.x;",
			"        this.hptext.pos.y = this.pos.y-20;",
			"        ",
			"        if (me.input.isKeyPressed(\"left\")){",
			"            //this.flipX(true);",
			"            this.body.force.x = -this.body.maxVel.x;",
			"            if (!this.isCurrentAnimation(\"walk-L\")) {",
			"                this.setCurrentAnimation(\"walk-L\");",
			"            }",
			"            this.stateChanged = true;",
			"            this.state.left = true;",
			"            this.state.right = false;",
			"            this.state.up = false;",
			"            this.state.down = false;",
			"            //this.posisi = \"kiri\";",
			"            ",
			"        } else if (me.input.isKeyPressed(\"right\")){",
			"            //this.flipX(false);",
			"            this.body.force.x = this.body.maxVel.x;",
			"            if (!this.isCurrentAnimation(\"walk-R\")) {",
			"                this.setCurrentAnimation(\"walk-R\");",
			"            } ",
			"            this.stateChanged = true;",
			"            this.state.left = false;",
			"            this.state.right = true;",
			"            this.state.up = false;",
			"            this.state.down = false;",
			"            //this.posisi = \"kanan\";",
			"           ",
			"        } else {",
			"            this.body.force.x = 0;",
			"            if(this.state.left == true){",
			"                this.setCurrentAnimation(\"idle-L\");",
			"            }if(this.state.right == true){",
			"                this.setCurrentAnimation(\"idle-R\");",
			"            }",
			"        }",
			"        ",
			"        if(me.input.isKeyPressed(\"up\")){",
			"            this.body.force.y = -this.body.maxVel.y;",
			"             this.body.maxVel.y = 2;",
			"            if (!this.isCurrentAnimation(\"walk-top\")) {",
			"                this.setCurrentAnimation(\"walk-top\");",
			"            } ",
			"            this.stateChanged = true;",
			"            this.state.left = false;",
			"            this.state.right = false;",
			"            this.state.up = true;",
			"            this.state.down = false;",
			"            //this.posisi = \"atas\";",
			"            ",
			"        }else if(me.input.isKeyPressed(\"down\")){",
			"            this.body.force.y = this.body.maxVel.y;",
			"             this.body.maxVel.y = 2;",
			"            if (!this.isCurrentAnimation(\"walk-bot\")) {",
			"                this.setCurrentAnimation(\"walk-bot\");",
			"            } ",
			"            this.stateChanged = true;",
			"            this.state.left = false;",
			"            this.state.right = false;",
			"            this.state.up = false;",
			"            this.state.down = true;",
			"            //this.posisi = \"bawah\";",
			"            ",
			"        } else {",
			"            this.body.force.y = 0;",
			"            this.body.maxVel.y = 0;",
			"            if(this.state.up == true){",
			"                this.setCurrentAnimation(\"idle-up\");",
			"            }if(this.state.down == true){",
			"                this.setCurrentAnimation(\"idle-bot\");",
			"            }",
			"        }",
			"        ",
			"  ",
			"        if(me.input.isKeyPressed(\"space\")){",
			"            ",
			"            game.var.socket.emit('nembak', {id: game.data.playerId, posx: this.pos.x, posy: this.pos.y});",
			"            var peluru = me.pool.pull(\"peluru\", this.pos.x, this.pos.y,{",
			"                status:this",
			"            });",
			"            game.data.pelurulist[game.data.playerId] = peluru;",
			"            me.game.world.addChild(peluru, 101);",
			"        }",
			"        ",
			"        if (this.stateChanged) {",
			"            game.var.socket.emit('updatePlayerState', {",
			"                x: this.pos.x,",
			"                y: this.pos.y",
			"            }, this.state);",
			"            return true;",
			"        } else {",
			"            return false;",
			"        }",
			"        "
		],
		"onCollision": [
			"        isSolid = false;",
			"        if(!this.onhit) {  ",
			"            if (other.body.collisionType === game.collisionTypes.PROJECTILE_OBJECT) {",
			"                this.onhit = true;",
			"                console.log(\"player kena peluru\");",
			"                this.totalhp -=1;",
			"                game.var.socket.emit('hpngurang', {id: game.data.playerId, hp: this.totalhp});",
			"                this.hptext.setText( this.totalhp);",
			"                this.delay = me.timer.setTimeout(()=>{",
			"                  this.onhit = false;",
			"                },500);",
			"            }",
			"           ",
			"        }",
			"       "
		],
		"onDraw": [
			"        "
		],
		"onActivateEvent": [
			"        "
		],
		"onDeactivateEvent": [
			"        me.timer.clearTimeout(this.delay);"
		],
		"userFunction": [
			"    "
		],
		"global-end": [
			" "
		]
	},
	"frameWidth": 31,
	"frameHeight": 36,
	"width": 100,
	"height": 100,
	"hasBody": true,
	"alpha": 1,
	"flipX": false,
	"flipY": false,
	"floating": false,
	"relativeX": "0",
	"relativeY": "0",
	"anchorX": 0,
	"anchorY": 0,
	"followed": "NONE",
	"alwaysUpdate": true,
	"updateWhenPaused": false,
	"isPersistent": false,
	"click": false,
	"keyUp": false,
	"keyDown": false,
	"collisionCheck": true,
	"gravityX": 0,
	"gravityY": 0,
	"collisionType": "PLAYER_OBJECT"
}