{
	"type": "object",
	"version": "0.0.2",
	"animations": {
		"list": [
			{
				"name": "walk_R",
				"frames": [
					{
						"id": "1b452951-f652-11ea-a438-c59d97efd37f",
						"type": "image",
						"ext": "png",
						"image_name": "Heinz_side_walk1",
						"data_path": "image/heinz prisoner/Heinz_side_walk1.png",
						"folder_name": "heinz prisoner",
						"width": 200,
						"height": 200
					},
					{
						"id": "1b452950-f652-11ea-a438-c59d97efd37f",
						"type": "image",
						"ext": "png",
						"image_name": "Heinz_side_walk0",
						"data_path": "image/heinz prisoner/Heinz_side_walk0.png",
						"folder_name": "heinz prisoner",
						"width": 200,
						"height": 200
					}
				],
				"duration": "100"
			},
			{
				"name": "walk_bot",
				"frames": [
					{
						"id": "01709cd0-f652-11ea-a438-c59d97efd37f",
						"type": "image",
						"ext": "png",
						"image_name": "heinz_walk0",
						"data_path": "image/heinz prisoner/heinz_walk0.png",
						"folder_name": "heinz prisoner",
						"width": 200,
						"height": 200
					},
					{
						"id": "01709cd1-f652-11ea-a438-c59d97efd37f",
						"type": "image",
						"ext": "png",
						"image_name": "heinz_walk1",
						"data_path": "image/heinz prisoner/heinz_walk1.png",
						"folder_name": "heinz prisoner",
						"width": 200,
						"height": 200
					}
				],
				"duration": "100"
			},
			{
				"name": "walk_top",
				"frames": [
					{
						"id": "28bf5380-f652-11ea-a438-c59d97efd37f",
						"type": "image",
						"ext": "png",
						"image_name": "heinz_back_walk0",
						"data_path": "image/heinz prisoner/heinz_back_walk0.png",
						"folder_name": "heinz prisoner",
						"width": 200,
						"height": 200
					},
					{
						"id": "28bf7a90-f652-11ea-a438-c59d97efd37f",
						"type": "image",
						"ext": "png",
						"image_name": "heinz_back_walk1",
						"data_path": "image/heinz prisoner/heinz_back_walk1.png",
						"folder_name": "heinz prisoner",
						"width": 200,
						"height": 200
					}
				],
				"duration": "100"
			},
			{
				"name": "idle_bot",
				"frames": [
					{
						"id": "01709cd0-f652-11ea-a438-c59d97efd37f",
						"type": "image",
						"ext": "png",
						"image_name": "heinz_walk0",
						"data_path": "image/heinz prisoner/heinz_walk0.png",
						"folder_name": "heinz prisoner",
						"width": 200,
						"height": 200
					}
				],
				"duration": "100"
			},
			{
				"name": "idle_top",
				"frames": [
					{
						"id": "28bf5380-f652-11ea-a438-c59d97efd37f",
						"type": "image",
						"ext": "png",
						"image_name": "heinz_back_walk0",
						"data_path": "image/heinz prisoner/heinz_back_walk0.png",
						"folder_name": "heinz prisoner",
						"width": 200,
						"height": 200
					}
				],
				"duration": "100"
			},
			{
				"name": "idle_R",
				"frames": [
					{
						"id": "1b452951-f652-11ea-a438-c59d97efd37f",
						"type": "image",
						"ext": "png",
						"image_name": "Heinz_side_walk1",
						"data_path": "image/heinz prisoner/Heinz_side_walk1.png",
						"folder_name": "heinz prisoner",
						"width": 200,
						"height": 200
					}
				],
				"duration": "100"
			}
		],
		"default": null
	},
	"images": {
		"list": [
			{
				"id": "28bf5380-f652-11ea-a438-c59d97efd37f",
				"type": "image",
				"ext": "png",
				"image_name": "heinz_back_walk0",
				"data_path": "image/heinz prisoner/heinz_back_walk0.png",
				"folder_name": "heinz prisoner",
				"width": 200,
				"height": 200
			},
			{
				"id": "28bf7a90-f652-11ea-a438-c59d97efd37f",
				"type": "image",
				"ext": "png",
				"image_name": "heinz_back_walk1",
				"data_path": "image/heinz prisoner/heinz_back_walk1.png",
				"folder_name": "heinz prisoner",
				"width": 200,
				"height": 200
			},
			{
				"id": "446125f0-f652-11ea-a438-c59d97efd37f",
				"type": "image",
				"ext": "png",
				"image_name": "Heinz_dead0",
				"data_path": "image/heinz prisoner/Heinz_dead0.png",
				"folder_name": "heinz prisoner",
				"width": 200,
				"height": 200
			},
			{
				"id": "446125f1-f652-11ea-a438-c59d97efd37f",
				"type": "image",
				"ext": "png",
				"image_name": "Heinz_dead1",
				"data_path": "image/heinz prisoner/Heinz_dead1.png",
				"folder_name": "heinz prisoner",
				"width": 200,
				"height": 200
			},
			{
				"id": "446125f2-f652-11ea-a438-c59d97efd37f",
				"type": "image",
				"ext": "png",
				"image_name": "Heinz_dead2",
				"data_path": "image/heinz prisoner/Heinz_dead2.png",
				"folder_name": "heinz prisoner",
				"width": 200,
				"height": 200
			},
			{
				"id": "1b452950-f652-11ea-a438-c59d97efd37f",
				"type": "image",
				"ext": "png",
				"image_name": "Heinz_side_walk0",
				"data_path": "image/heinz prisoner/Heinz_side_walk0.png",
				"folder_name": "heinz prisoner",
				"width": 200,
				"height": 200
			},
			{
				"id": "1b452951-f652-11ea-a438-c59d97efd37f",
				"type": "image",
				"ext": "png",
				"image_name": "Heinz_side_walk1",
				"data_path": "image/heinz prisoner/Heinz_side_walk1.png",
				"folder_name": "heinz prisoner",
				"width": 200,
				"height": 200
			},
			{
				"id": "01709cd0-f652-11ea-a438-c59d97efd37f",
				"type": "image",
				"ext": "png",
				"image_name": "heinz_walk0",
				"data_path": "image/heinz prisoner/heinz_walk0.png",
				"folder_name": "heinz prisoner",
				"width": 200,
				"height": 200
			},
			{
				"id": "01709cd1-f652-11ea-a438-c59d97efd37f",
				"type": "image",
				"ext": "png",
				"image_name": "heinz_walk1",
				"data_path": "image/heinz prisoner/heinz_walk1.png",
				"folder_name": "heinz prisoner",
				"width": 200,
				"height": 200
			}
		]
	},
	"image": "28bf5380-f652-11ea-a438-c59d97efd37f",
	"shapes": [
		{
			"type": "rect",
			"points": [
				[0,0],
				[100,100]
			]
		}
	],
	"collisionMask": [
		"ALL_OBJECT"
	],
	"event": "<xml xmlns=\"http://www.w3.org/1999/xhtml\"><variables><variable type=\"\" id=\";eq@OG[Jix=!V3BnRv$|\">variable</variable></variables></xml>",
	"variables": [
		{
			"name": "variable",
			"description": "",
			"public": true,
			"init": false
		}
	],
	"userCode": {
		"global": [
			" "
		],
		"pre-super": [
			"        "
		],
		"init": [
			"        me.input.bindKey(me.input.KEY.LEFT,  \"left\");",
			"        me.input.bindKey(me.input.KEY.RIGHT, \"right\");",
			"        me.input.bindKey(me.input.KEY.UP, \"up\");",
			"        me.input.bindKey(me.input.KEY.DOWN, \"down\");",
			"        ",
			"        ",
			"        this.speed = 2;",
			"        ",
			"        this.state = {",
			"            left: false,",
			"            right : false,",
			"            up : false,",
			"            down : false,",
			"            walk : false",
			"        }",
			"        ",
			"        this.body.force.set(0, 0);",
			"        this.body.friction.set(0.5, 0);",
			"        this.body.setMaxVelocity( this.speed, this.speed);",
			"        this.body.falling = false;",
			"        this.body.gravity.y = 0;",
			"        ",
			"        this.stateChanged = false;",
			"        ",
			"        this.state.left = true;",
			"        ",
			"        this.shadow = me.pool.pull(\"shadow\", this.pos.x-3480, this.pos.y-1620);",
			"        me.game.world.addChild(this.shadow, this.pos.z+100);",
			"        ",
			"        this.kuning = me.pool.pull(\"kuning\", this.pos.x, this.pos.y);",
			"        me.game.world.addChild(this.kuning, this.pos.z+99)",
			"        ",
			"        // this.body.collisionTypes = me.collision.types.PLAYER_OBJECT;",
			"        "
		],
		"update": [
			"        if(me.input.isKeyPressed(\"left\")){",
			"            this.flipX(true);",
			"            // this.body.force.x = -this.body.maxVel.x;",
			"            this.body.vel.x = -this.speed;",
			"            if (!this.isCurrentAnimation(\"walk_R\")) {",
			"                this.setCurrentAnimation(\"walk_R\");",
			"            }",
			"            this.stateChanged = true;",
			"            this.state.left = true;",
			"            this.state.right = false;",
			"            this.state.up = false;",
			"            this.state.down = false;",
			"            this.state.walk = true;",
			"",
			"        }else if (me.input.isKeyPressed(\"right\")){",
			"            this.flipX(false);",
			"            //this.body.force.x = this.body.maxVel.x;",
			"            this.body.vel.x = this.speed;",
			"            if (!this.isCurrentAnimation(\"walk_R\")) {",
			"                this.setCurrentAnimation(\"walk_R\");",
			"            } ",
			"            this.stateChanged = true;",
			"            this.state.left = false;",
			"            this.state.right = true;",
			"            this.state.up = false;",
			"            this.state.down = false;",
			"            this.state.walk = true;",
			"        }else {",
			"            this.body.force.x = 0;",
			"            if(this.state.left == true ){",
			"                this.flipX(true);",
			"                this.setCurrentAnimation(\"idle_R\");",
			"            }if(this.state.right == true ){",
			"                this.flipX(false);",
			"                this.setCurrentAnimation(\"idle_R\");",
			"            }",
			"        }",
			"        ",
			"        if(me.input.isKeyPressed(\"up\")){",
			"            this.body.vel.y = -this.speed;",
			"            // this.body.force.y = -this.body.maxVel.y;",
			"            this.body.maxVel.y = 2;",
			"            if (!this.isCurrentAnimation(\"walk_top\")) {",
			"                this.setCurrentAnimation(\"walk_top\");",
			"            } ",
			"            this.stateChanged = true;",
			"            this.state.left = false;",
			"            this.state.right = false;",
			"            this.state.up = true;",
			"            this.state.down = false;",
			"            ",
			"        }else if(me.input.isKeyPressed(\"down\")){",
			"            // this.body.force.y = this.body.maxVel.y;",
			"           this.body.maxVel.y = 2;",
			"           this.body.vel.y = this.speed;",
			"            if (!this.isCurrentAnimation(\"walk_bot\")) {",
			"                this.setCurrentAnimation(\"walk_bot\");",
			"            } ",
			"            this.stateChanged = true;",
			"            this.state.left = false;",
			"            this.state.right = false;",
			"            this.state.up = false;",
			"            this.state.down = true;",
			"",
			"         } else {",
			"            this.body.force.y = 0;",
			"            this.body.maxVel.y = 0;",
			"            //console.log(\"stop\");",
			"            if(this.state.up == true){",
			"                this.setCurrentAnimation(\"idle_top\");",
			"            }if(this.state.down == true){",
			"               this.setCurrentAnimation(\"idle_bot\");",
			"            }",
			"        }",
			"        ",
			"        ",
			"        this.shadow.pos.x = this.pos.x-3480;",
			"        this.shadow.pos.y = this.pos.y-1620;",
			"        ",
			"        this.kuning.pos.x = this.pos.x;",
			"        this.kuning.pos.y = this.pos.y;",
			"        ",
			"        "
		],
		"onCollision": [
			"        \tvar isSolid = false;"
		],
		"onDraw": [
			"        "
		],
		"onActivateEvent": [
			"        "
		],
		"onDeactivateEvent": [
			"        "
		],
		"userFunction": [
			"    "
		],
		"global-end": [
			" "
		]
	},
	"frameWidth": 100,
	"frameHeight": 100,
	"width": 100,
	"height": 100,
	"hasBody": true,
	"alpha": 1,
	"flipX": false,
	"flipY": false,
	"floating": false,
	"relativeX": "0",
	"relativeY": "0",
	"anchorX": 0,
	"anchorY": 0,
	"followed": "NONE",
	"alwaysUpdate": true,
	"updateWhenPaused": false,
	"isPersistent": false,
	"click": false,
	"keyUp": false,
	"keyDown": false,
	"collisionCheck": true,
	"gravityX": 0,
	"gravityY": 0,
	"collisionType": "PLAYER_OBJECT"
}