{
	"type": "object",
	"version": "0.0.2",
	"animations": {
		"list": [
			{
				"name": "attack_top",
				"frames": [
					{
						"id": "936b3dc6-fbb6-11ea-b15a-f5cc2329b74b",
						"type": "image",
						"ext": "png",
						"image_name": "German_sniper_attack_back0",
						"data_path": "image/enemy/german sniper/German_sniper_attack_back0.png",
						"folder_name": "enemy/german sniper",
						"width": 220,
						"height": 220
					},
					{
						"id": "936b64d0-fbb6-11ea-b15a-f5cc2329b74b",
						"type": "image",
						"ext": "png",
						"image_name": "German_sniper_attack_back1",
						"data_path": "image/enemy/german sniper/German_sniper_attack_back1.png",
						"folder_name": "enemy/german sniper",
						"width": 220,
						"height": 220
					},
					{
						"id": "936b3dc0-fbb6-11ea-b15a-f5cc2329b74b",
						"type": "image",
						"ext": "png",
						"image_name": "German_sniper_attack_back2",
						"data_path": "image/enemy/german sniper/German_sniper_attack_back2.png",
						"folder_name": "enemy/german sniper",
						"width": 220,
						"height": 220
					},
					{
						"id": "936b3dc1-fbb6-11ea-b15a-f5cc2329b74b",
						"type": "image",
						"ext": "png",
						"image_name": "German_sniper_attack_back3",
						"data_path": "image/enemy/german sniper/German_sniper_attack_back3.png",
						"folder_name": "enemy/german sniper",
						"width": 220,
						"height": 220
					},
					{
						"id": "936b3dc2-fbb6-11ea-b15a-f5cc2329b74b",
						"type": "image",
						"ext": "png",
						"image_name": "German_sniper_attack_back4",
						"data_path": "image/enemy/german sniper/German_sniper_attack_back4.png",
						"folder_name": "enemy/german sniper",
						"width": 220,
						"height": 220
					},
					{
						"id": "936b3dc4-fbb6-11ea-b15a-f5cc2329b74b",
						"type": "image",
						"ext": "png",
						"image_name": "German_sniper_attack_back6",
						"data_path": "image/enemy/german sniper/German_sniper_attack_back6.png",
						"folder_name": "enemy/german sniper",
						"width": 220,
						"height": 220
					},
					{
						"id": "936b3dc3-fbb6-11ea-b15a-f5cc2329b74b",
						"type": "image",
						"ext": "png",
						"image_name": "German_sniper_attack_back5",
						"data_path": "image/enemy/german sniper/German_sniper_attack_back5.png",
						"folder_name": "enemy/german sniper",
						"width": 220,
						"height": 220
					},
					{
						"id": "936b3dc5-fbb6-11ea-b15a-f5cc2329b74b",
						"type": "image",
						"ext": "png",
						"image_name": "German_sniper_attack_back7",
						"data_path": "image/enemy/german sniper/German_sniper_attack_back7.png",
						"folder_name": "enemy/german sniper",
						"width": 220,
						"height": 220
					}
				],
				"duration": "100"
			},
			{
				"name": "attack_bot",
				"frames": [
					{
						"id": "9bca7da2-fbb6-11ea-b15a-f5cc2329b74b",
						"type": "image",
						"ext": "png",
						"image_name": "German_sniper_attack_front_0",
						"data_path": "image/enemy/german sniper/German_sniper_attack_front_0.png",
						"folder_name": "enemy/german sniper",
						"width": 220,
						"height": 220
					},
					{
						"id": "9bca7da3-fbb6-11ea-b15a-f5cc2329b74b",
						"type": "image",
						"ext": "png",
						"image_name": "German_sniper_attack_front_1",
						"data_path": "image/enemy/german sniper/German_sniper_attack_front_1.png",
						"folder_name": "enemy/german sniper",
						"width": 220,
						"height": 220
					},
					{
						"id": "9bca7da4-fbb6-11ea-b15a-f5cc2329b74b",
						"type": "image",
						"ext": "png",
						"image_name": "German_sniper_attack_front_2",
						"data_path": "image/enemy/german sniper/German_sniper_attack_front_2.png",
						"folder_name": "enemy/german sniper",
						"width": 220,
						"height": 220
					},
					{
						"id": "9bca7da5-fbb6-11ea-b15a-f5cc2329b74b",
						"type": "image",
						"ext": "png",
						"image_name": "German_sniper_attack_front_3",
						"data_path": "image/enemy/german sniper/German_sniper_attack_front_3.png",
						"folder_name": "enemy/german sniper",
						"width": 220,
						"height": 220
					},
					{
						"id": "9bca7da6-fbb6-11ea-b15a-f5cc2329b74b",
						"type": "image",
						"ext": "png",
						"image_name": "German_sniper_attack_front_4",
						"data_path": "image/enemy/german sniper/German_sniper_attack_front_4.png",
						"folder_name": "enemy/german sniper",
						"width": 220,
						"height": 220
					},
					{
						"id": "9bca5690-fbb6-11ea-b15a-f5cc2329b74b",
						"type": "image",
						"ext": "png",
						"image_name": "German_sniper_attack_front_5",
						"data_path": "image/enemy/german sniper/German_sniper_attack_front_5.png",
						"folder_name": "enemy/german sniper",
						"width": 220,
						"height": 220
					},
					{
						"id": "9bca7da0-fbb6-11ea-b15a-f5cc2329b74b",
						"type": "image",
						"ext": "png",
						"image_name": "German_sniper_attack_front_6",
						"data_path": "image/enemy/german sniper/German_sniper_attack_front_6.png",
						"folder_name": "enemy/german sniper",
						"width": 220,
						"height": 220
					},
					{
						"id": "9bca7da1-fbb6-11ea-b15a-f5cc2329b74b",
						"type": "image",
						"ext": "png",
						"image_name": "German_sniper_attack_front_7",
						"data_path": "image/enemy/german sniper/German_sniper_attack_front_7.png",
						"folder_name": "enemy/german sniper",
						"width": 220,
						"height": 220
					}
				],
				"duration": "100"
			},
			{
				"name": "dead",
				"frames": [
					{
						"id": "85052cf0-fbb6-11ea-b15a-f5cc2329b74b",
						"type": "image",
						"ext": "png",
						"image_name": "German_sniper_dead0",
						"data_path": "image/enemy/german sniper/German_sniper_dead0.png",
						"folder_name": "enemy/german sniper",
						"width": 220,
						"height": 220
					},
					{
						"id": "85052cf1-fbb6-11ea-b15a-f5cc2329b74b",
						"type": "image",
						"ext": "png",
						"image_name": "German_sniper_dead1",
						"data_path": "image/enemy/german sniper/German_sniper_dead1.png",
						"folder_name": "enemy/german sniper",
						"width": 220,
						"height": 220
					},
					{
						"id": "85052cf2-fbb6-11ea-b15a-f5cc2329b74b",
						"type": "image",
						"ext": "png",
						"image_name": "German_sniper_dead2",
						"data_path": "image/enemy/german sniper/German_sniper_dead2.png",
						"folder_name": "enemy/german sniper",
						"width": 220,
						"height": 220
					}
				],
				"duration": "200"
			},
			{
				"name": "attack_R",
				"frames": [
					{
						"id": "7d37f3e3-fbb6-11ea-b15a-f5cc2329b74b",
						"type": "image",
						"ext": "png",
						"image_name": "German_sniper_side_attack0",
						"data_path": "image/enemy/german sniper/German_sniper_side_attack0.png",
						"folder_name": "enemy/german sniper",
						"width": 220,
						"height": 220
					},
					{
						"id": "7d37f3e4-fbb6-11ea-b15a-f5cc2329b74b",
						"type": "image",
						"ext": "png",
						"image_name": "German_sniper_side_attack1",
						"data_path": "image/enemy/german sniper/German_sniper_side_attack1.png",
						"folder_name": "enemy/german sniper",
						"width": 220,
						"height": 220
					},
					{
						"id": "7d37f3e5-fbb6-11ea-b15a-f5cc2329b74b",
						"type": "image",
						"ext": "png",
						"image_name": "German_sniper_side_attack2",
						"data_path": "image/enemy/german sniper/German_sniper_side_attack2.png",
						"folder_name": "enemy/german sniper",
						"width": 220,
						"height": 220
					},
					{
						"id": "7d37f3e6-fbb6-11ea-b15a-f5cc2329b74b",
						"type": "image",
						"ext": "png",
						"image_name": "German_sniper_side_attack3",
						"data_path": "image/enemy/german sniper/German_sniper_side_attack3.png",
						"folder_name": "enemy/german sniper",
						"width": 220,
						"height": 220
					},
					{
						"id": "7d37f3e7-fbb6-11ea-b15a-f5cc2329b74b",
						"type": "image",
						"ext": "png",
						"image_name": "German_sniper_side_attack4",
						"data_path": "image/enemy/german sniper/German_sniper_side_attack4.png",
						"folder_name": "enemy/german sniper",
						"width": 220,
						"height": 220
					},
					{
						"id": "7d37f3e0-fbb6-11ea-b15a-f5cc2329b74b",
						"type": "image",
						"ext": "png",
						"image_name": "German_sniper_side_attack5",
						"data_path": "image/enemy/german sniper/German_sniper_side_attack5.png",
						"folder_name": "enemy/german sniper",
						"width": 220,
						"height": 220
					},
					{
						"id": "7d37f3e1-fbb6-11ea-b15a-f5cc2329b74b",
						"type": "image",
						"ext": "png",
						"image_name": "German_sniper_side_attack6",
						"data_path": "image/enemy/german sniper/German_sniper_side_attack6.png",
						"folder_name": "enemy/german sniper",
						"width": 220,
						"height": 220
					},
					{
						"id": "7d37f3e2-fbb6-11ea-b15a-f5cc2329b74b",
						"type": "image",
						"ext": "png",
						"image_name": "German_sniper_side_attack7",
						"data_path": "image/enemy/german sniper/German_sniper_side_attack7.png",
						"folder_name": "enemy/german sniper",
						"width": 220,
						"height": 220
					}
				],
				"duration": "100"
			},
			{
				"name": "walk_R",
				"frames": [
					{
						"id": "712bd8a1-fbb6-11ea-b15a-f5cc2329b74b",
						"type": "image",
						"ext": "png",
						"image_name": "German_sniper_side_walk0",
						"data_path": "image/enemy/german sniper/German_sniper_side_walk0.png",
						"folder_name": "enemy/german sniper",
						"width": 220,
						"height": 220
					},
					{
						"id": "712bd8a0-fbb6-11ea-b15a-f5cc2329b74b",
						"type": "image",
						"ext": "png",
						"image_name": "German_sniper_side_walk1",
						"data_path": "image/enemy/german sniper/German_sniper_side_walk1.png",
						"folder_name": "enemy/german sniper",
						"width": 220,
						"height": 220
					}
				],
				"duration": "100"
			},
			{
				"name": "walk_bot",
				"frames": [
					{
						"id": "66e5fe71-fbb6-11ea-b15a-f5cc2329b74b",
						"type": "image",
						"ext": "png",
						"image_name": "german_sniper_walk_front0",
						"data_path": "image/enemy/german sniper/german_sniper_walk_front0.png",
						"folder_name": "enemy/german sniper",
						"width": 220,
						"height": 220
					},
					{
						"id": "66e5fe70-fbb6-11ea-b15a-f5cc2329b74b",
						"type": "image",
						"ext": "png",
						"image_name": "german_sniper_walk_front1",
						"data_path": "image/enemy/german sniper/german_sniper_walk_front1.png",
						"folder_name": "enemy/german sniper",
						"width": 220,
						"height": 220
					}
				],
				"duration": "100"
			},
			{
				"name": "walk_top",
				"frames": [
					{
						"id": "8b422910-fbb6-11ea-b15a-f5cc2329b74b",
						"type": "image",
						"ext": "png",
						"image_name": "German_walk_back0",
						"data_path": "image/enemy/german sniper/German_walk_back0.png",
						"folder_name": "enemy/german sniper",
						"width": 220,
						"height": 220
					},
					{
						"id": "8b422911-fbb6-11ea-b15a-f5cc2329b74b",
						"type": "image",
						"ext": "png",
						"image_name": "German_walk_back1",
						"data_path": "image/enemy/german sniper/German_walk_back1.png",
						"folder_name": "enemy/german sniper",
						"width": 220,
						"height": 220
					}
				],
				"duration": "100"
			},
			{
				"name": "idle_bot",
				"frames": [
					{
						"id": "66e5fe71-fbb6-11ea-b15a-f5cc2329b74b",
						"type": "image",
						"ext": "png",
						"image_name": "german_sniper_walk_front0",
						"data_path": "image/enemy/german sniper/german_sniper_walk_front0.png",
						"folder_name": "enemy/german sniper",
						"width": 220,
						"height": 220
					}
				],
				"duration": "100"
			},
			{
				"name": "idle_top",
				"frames": [
					{
						"id": "8b422910-fbb6-11ea-b15a-f5cc2329b74b",
						"type": "image",
						"ext": "png",
						"image_name": "German_walk_back0",
						"data_path": "image/enemy/german sniper/German_walk_back0.png",
						"folder_name": "enemy/german sniper",
						"width": 220,
						"height": 220
					}
				],
				"duration": "100"
			},
			{
				"name": "idle_R",
				"frames": [
					{
						"id": "712bd8a1-fbb6-11ea-b15a-f5cc2329b74b",
						"type": "image",
						"ext": "png",
						"image_name": "German_sniper_side_walk0",
						"data_path": "image/enemy/german sniper/German_sniper_side_walk0.png",
						"folder_name": "enemy/german sniper",
						"width": 220,
						"height": 220
					}
				],
				"duration": "100"
			}
		],
		"default": null
	},
	"images": {
		"list": [
			{
				"id": "936b3dc6-fbb6-11ea-b15a-f5cc2329b74b",
				"type": "image",
				"ext": "png",
				"image_name": "German_sniper_attack_back0",
				"data_path": "image/enemy/german sniper/German_sniper_attack_back0.png",
				"folder_name": "enemy/german sniper",
				"width": 220,
				"height": 220
			},
			{
				"id": "936b64d0-fbb6-11ea-b15a-f5cc2329b74b",
				"type": "image",
				"ext": "png",
				"image_name": "German_sniper_attack_back1",
				"data_path": "image/enemy/german sniper/German_sniper_attack_back1.png",
				"folder_name": "enemy/german sniper",
				"width": 220,
				"height": 220
			},
			{
				"id": "936b3dc0-fbb6-11ea-b15a-f5cc2329b74b",
				"type": "image",
				"ext": "png",
				"image_name": "German_sniper_attack_back2",
				"data_path": "image/enemy/german sniper/German_sniper_attack_back2.png",
				"folder_name": "enemy/german sniper",
				"width": 220,
				"height": 220
			},
			{
				"id": "936b3dc1-fbb6-11ea-b15a-f5cc2329b74b",
				"type": "image",
				"ext": "png",
				"image_name": "German_sniper_attack_back3",
				"data_path": "image/enemy/german sniper/German_sniper_attack_back3.png",
				"folder_name": "enemy/german sniper",
				"width": 220,
				"height": 220
			},
			{
				"id": "936b3dc2-fbb6-11ea-b15a-f5cc2329b74b",
				"type": "image",
				"ext": "png",
				"image_name": "German_sniper_attack_back4",
				"data_path": "image/enemy/german sniper/German_sniper_attack_back4.png",
				"folder_name": "enemy/german sniper",
				"width": 220,
				"height": 220
			},
			{
				"id": "936b3dc4-fbb6-11ea-b15a-f5cc2329b74b",
				"type": "image",
				"ext": "png",
				"image_name": "German_sniper_attack_back6",
				"data_path": "image/enemy/german sniper/German_sniper_attack_back6.png",
				"folder_name": "enemy/german sniper",
				"width": 220,
				"height": 220
			},
			{
				"id": "936b3dc3-fbb6-11ea-b15a-f5cc2329b74b",
				"type": "image",
				"ext": "png",
				"image_name": "German_sniper_attack_back5",
				"data_path": "image/enemy/german sniper/German_sniper_attack_back5.png",
				"folder_name": "enemy/german sniper",
				"width": 220,
				"height": 220
			},
			{
				"id": "936b3dc5-fbb6-11ea-b15a-f5cc2329b74b",
				"type": "image",
				"ext": "png",
				"image_name": "German_sniper_attack_back7",
				"data_path": "image/enemy/german sniper/German_sniper_attack_back7.png",
				"folder_name": "enemy/german sniper",
				"width": 220,
				"height": 220
			},
			{
				"id": "9bca7da2-fbb6-11ea-b15a-f5cc2329b74b",
				"type": "image",
				"ext": "png",
				"image_name": "German_sniper_attack_front_0",
				"data_path": "image/enemy/german sniper/German_sniper_attack_front_0.png",
				"folder_name": "enemy/german sniper",
				"width": 220,
				"height": 220
			},
			{
				"id": "9bca7da3-fbb6-11ea-b15a-f5cc2329b74b",
				"type": "image",
				"ext": "png",
				"image_name": "German_sniper_attack_front_1",
				"data_path": "image/enemy/german sniper/German_sniper_attack_front_1.png",
				"folder_name": "enemy/german sniper",
				"width": 220,
				"height": 220
			},
			{
				"id": "9bca7da4-fbb6-11ea-b15a-f5cc2329b74b",
				"type": "image",
				"ext": "png",
				"image_name": "German_sniper_attack_front_2",
				"data_path": "image/enemy/german sniper/German_sniper_attack_front_2.png",
				"folder_name": "enemy/german sniper",
				"width": 220,
				"height": 220
			},
			{
				"id": "9bca7da5-fbb6-11ea-b15a-f5cc2329b74b",
				"type": "image",
				"ext": "png",
				"image_name": "German_sniper_attack_front_3",
				"data_path": "image/enemy/german sniper/German_sniper_attack_front_3.png",
				"folder_name": "enemy/german sniper",
				"width": 220,
				"height": 220
			},
			{
				"id": "9bca7da6-fbb6-11ea-b15a-f5cc2329b74b",
				"type": "image",
				"ext": "png",
				"image_name": "German_sniper_attack_front_4",
				"data_path": "image/enemy/german sniper/German_sniper_attack_front_4.png",
				"folder_name": "enemy/german sniper",
				"width": 220,
				"height": 220
			},
			{
				"id": "9bca5690-fbb6-11ea-b15a-f5cc2329b74b",
				"type": "image",
				"ext": "png",
				"image_name": "German_sniper_attack_front_5",
				"data_path": "image/enemy/german sniper/German_sniper_attack_front_5.png",
				"folder_name": "enemy/german sniper",
				"width": 220,
				"height": 220
			},
			{
				"id": "9bca7da0-fbb6-11ea-b15a-f5cc2329b74b",
				"type": "image",
				"ext": "png",
				"image_name": "German_sniper_attack_front_6",
				"data_path": "image/enemy/german sniper/German_sniper_attack_front_6.png",
				"folder_name": "enemy/german sniper",
				"width": 220,
				"height": 220
			},
			{
				"id": "9bca7da1-fbb6-11ea-b15a-f5cc2329b74b",
				"type": "image",
				"ext": "png",
				"image_name": "German_sniper_attack_front_7",
				"data_path": "image/enemy/german sniper/German_sniper_attack_front_7.png",
				"folder_name": "enemy/german sniper",
				"width": 220,
				"height": 220
			},
			{
				"id": "85052cf0-fbb6-11ea-b15a-f5cc2329b74b",
				"type": "image",
				"ext": "png",
				"image_name": "German_sniper_dead0",
				"data_path": "image/enemy/german sniper/German_sniper_dead0.png",
				"folder_name": "enemy/german sniper",
				"width": 220,
				"height": 220
			},
			{
				"id": "85052cf1-fbb6-11ea-b15a-f5cc2329b74b",
				"type": "image",
				"ext": "png",
				"image_name": "German_sniper_dead1",
				"data_path": "image/enemy/german sniper/German_sniper_dead1.png",
				"folder_name": "enemy/german sniper",
				"width": 220,
				"height": 220
			},
			{
				"id": "85052cf2-fbb6-11ea-b15a-f5cc2329b74b",
				"type": "image",
				"ext": "png",
				"image_name": "German_sniper_dead2",
				"data_path": "image/enemy/german sniper/German_sniper_dead2.png",
				"folder_name": "enemy/german sniper",
				"width": 220,
				"height": 220
			},
			{
				"id": "7d37f3e3-fbb6-11ea-b15a-f5cc2329b74b",
				"type": "image",
				"ext": "png",
				"image_name": "German_sniper_side_attack0",
				"data_path": "image/enemy/german sniper/German_sniper_side_attack0.png",
				"folder_name": "enemy/german sniper",
				"width": 220,
				"height": 220
			},
			{
				"id": "7d37f3e4-fbb6-11ea-b15a-f5cc2329b74b",
				"type": "image",
				"ext": "png",
				"image_name": "German_sniper_side_attack1",
				"data_path": "image/enemy/german sniper/German_sniper_side_attack1.png",
				"folder_name": "enemy/german sniper",
				"width": 220,
				"height": 220
			},
			{
				"id": "7d37f3e5-fbb6-11ea-b15a-f5cc2329b74b",
				"type": "image",
				"ext": "png",
				"image_name": "German_sniper_side_attack2",
				"data_path": "image/enemy/german sniper/German_sniper_side_attack2.png",
				"folder_name": "enemy/german sniper",
				"width": 220,
				"height": 220
			},
			{
				"id": "7d37f3e6-fbb6-11ea-b15a-f5cc2329b74b",
				"type": "image",
				"ext": "png",
				"image_name": "German_sniper_side_attack3",
				"data_path": "image/enemy/german sniper/German_sniper_side_attack3.png",
				"folder_name": "enemy/german sniper",
				"width": 220,
				"height": 220
			},
			{
				"id": "7d37f3e7-fbb6-11ea-b15a-f5cc2329b74b",
				"type": "image",
				"ext": "png",
				"image_name": "German_sniper_side_attack4",
				"data_path": "image/enemy/german sniper/German_sniper_side_attack4.png",
				"folder_name": "enemy/german sniper",
				"width": 220,
				"height": 220
			},
			{
				"id": "7d37f3e0-fbb6-11ea-b15a-f5cc2329b74b",
				"type": "image",
				"ext": "png",
				"image_name": "German_sniper_side_attack5",
				"data_path": "image/enemy/german sniper/German_sniper_side_attack5.png",
				"folder_name": "enemy/german sniper",
				"width": 220,
				"height": 220
			},
			{
				"id": "7d37f3e1-fbb6-11ea-b15a-f5cc2329b74b",
				"type": "image",
				"ext": "png",
				"image_name": "German_sniper_side_attack6",
				"data_path": "image/enemy/german sniper/German_sniper_side_attack6.png",
				"folder_name": "enemy/german sniper",
				"width": 220,
				"height": 220
			},
			{
				"id": "7d37f3e2-fbb6-11ea-b15a-f5cc2329b74b",
				"type": "image",
				"ext": "png",
				"image_name": "German_sniper_side_attack7",
				"data_path": "image/enemy/german sniper/German_sniper_side_attack7.png",
				"folder_name": "enemy/german sniper",
				"width": 220,
				"height": 220
			},
			{
				"id": "712bd8a1-fbb6-11ea-b15a-f5cc2329b74b",
				"type": "image",
				"ext": "png",
				"image_name": "German_sniper_side_walk0",
				"data_path": "image/enemy/german sniper/German_sniper_side_walk0.png",
				"folder_name": "enemy/german sniper",
				"width": 220,
				"height": 220
			},
			{
				"id": "712bd8a0-fbb6-11ea-b15a-f5cc2329b74b",
				"type": "image",
				"ext": "png",
				"image_name": "German_sniper_side_walk1",
				"data_path": "image/enemy/german sniper/German_sniper_side_walk1.png",
				"folder_name": "enemy/german sniper",
				"width": 220,
				"height": 220
			},
			{
				"id": "66e5fe71-fbb6-11ea-b15a-f5cc2329b74b",
				"type": "image",
				"ext": "png",
				"image_name": "german_sniper_walk_front0",
				"data_path": "image/enemy/german sniper/german_sniper_walk_front0.png",
				"folder_name": "enemy/german sniper",
				"width": 220,
				"height": 220
			},
			{
				"id": "66e5fe70-fbb6-11ea-b15a-f5cc2329b74b",
				"type": "image",
				"ext": "png",
				"image_name": "german_sniper_walk_front1",
				"data_path": "image/enemy/german sniper/german_sniper_walk_front1.png",
				"folder_name": "enemy/german sniper",
				"width": 220,
				"height": 220
			},
			{
				"id": "8b422910-fbb6-11ea-b15a-f5cc2329b74b",
				"type": "image",
				"ext": "png",
				"image_name": "German_walk_back0",
				"data_path": "image/enemy/german sniper/German_walk_back0.png",
				"folder_name": "enemy/german sniper",
				"width": 220,
				"height": 220
			},
			{
				"id": "8b422911-fbb6-11ea-b15a-f5cc2329b74b",
				"type": "image",
				"ext": "png",
				"image_name": "German_walk_back1",
				"data_path": "image/enemy/german sniper/German_walk_back1.png",
				"folder_name": "enemy/german sniper",
				"width": 220,
				"height": 220
			}
		]
	},
	"image": "936b3dc6-fbb6-11ea-b15a-f5cc2329b74b",
	"shapes": [],
	"collisionMask": [
		"PLAYER_OBJECT"
	],
	"event": "<xml xmlns=\"http://www.w3.org/1999/xhtml\"><variables><variable type=\"\" id=\"T-aI262WzggS^g(oN(,B\">variable</variable></variables></xml>",
	"variables": [
		{
			"name": "variable",
			"description": "",
			"public": true,
			"init": false
		}
	],
	"userCode": {
		"global": [
			" "
		],
		"pre-super": [
			"        "
		],
		"init": [
			"        this.component = {};",
			"        this.setCurrentAnimation('idle_R');",
			"        this.radius = 300;",
			"        this.isPlayerSide = false;",
			"        this.body.collisionType = me.collision.types.ENEMY_OBJECT;",
			"        ",
			"        this.component.colliderAttack = me.pool.pull(\"game.component.collider\", this, {",
			"            radius: this.radius,",
			"            colliderType: game.collisionTypes.RANGE_ATTACK,",
			"            colliderMask: this.isPlayerSide ? ",
			"            me.collision.types.ENEMY_OBJECT : me.collision.types.PLAYER_OBJECT",
			"        });",
			"       ",
			"        ",
			"        this.behaviourJSON = me.plugins.Behaviour.convertJSONString(unitRangeBehaviourAI);"
		],
		"update": [
			"        this.component.colliderAttack.update(dt);",
			"        me.plugins.Behaviour.executeJsonBehaviour(this.behaviourJSON, this);"
		],
		"onCollision": [
			"        isSolid = false;"
		],
		"onDraw": [
			"        "
		],
		"onActivateEvent": [
			"        "
		],
		"onDeactivateEvent": [
			"        "
		],
		"userFunction": [
			"    isTargetInRange: function(){",
			"        var listInRange = [];",
			"        this.component.colliderAttack.onCollide = (response, other) => {",
			"            if(this.checkTarget(other)){",
			"                listInRange.push(other);",
			"            }",
			"        };",
			"        this.component.colliderAttack.checkCollision();",
			"        console.log(\"[BEHAVIOUR] IsTargetInRange\");",
			"        return listInRange.includes(this.target);",
			"    },",
			"    ",
			"    attackTarget: function(){",
			"        this.component.move.stopMovement();",
			"        this.changeAnimation(\"attack\");",
			"        ",
			"        if(this.component.attack.checkAttackFrame()){",
			"            console.log(\"[BEHAVIOUR] AttackTarget\");",
			"            this._attackTarget();",
			"        }",
			"        return true;",
			"    },",
			"    ",
			"    _attackTarget: function(){",
			"        this.component.attack.attackTarget(1 / this.attackPerCycle);",
			"    },",
			"    ",
			"    findTarget: function(){",
			"        var res = false;",
			"        this.component.colliderAttack.onCollide = (response, other) => {",
			"            if(this.checkTarget(other)){",
			"                res = true;",
			"                this.target = other;",
			"                console.log(\"targeted respon\");",
			"            }",
			"        };",
			"        this.component.colliderAttack.checkCollision();",
			"         console.log(\"[BEHAVIOUR] FindTarget\", res);",
			"        return res;",
			"    },",
			"    ",
			"    checkTarget: function(target){",
			"        return target.side !== this.side;",
			"    },",
			"    ",
			"    //coba fungsi",
			"    ",
			"    haveTarget: function(){ return ",
			"    //console.log(\"havetarget\");",
			"    },",
			"    ifDead: function(){ return ",
			"    //console.log(\"dead\") ",
			"    },",
			"    checkEffect: function(){ return",
			"    //console.log(\"cek efek\")",
			"    },   ",
			"    ",
			"    destroyed: function(){",
			"  ",
			"        //console.log(\"DESTROYED\");",
			"        return true;",
			"    },",
			"    ",
			"    moveForward: function(){",
			"     ",
			"        return true;",
			"    },"
		],
		"global-end": [
			" "
		]
	},
	"frameWidth": 100,
	"frameHeight": 100,
	"width": 100,
	"height": 100,
	"hasBody": true,
	"alpha": 1,
	"flipX": false,
	"flipY": false,
	"floating": false,
	"relativeX": "0",
	"relativeY": "0",
	"anchorX": 0,
	"anchorY": 0,
	"followed": "NONE",
	"alwaysUpdate": true,
	"updateWhenPaused": false,
	"isPersistent": false,
	"click": false,
	"keyUp": false,
	"keyDown": false,
	"collisionCheck": true,
	"gravityX": 0,
	"gravityY": 0,
	"collisionType": "ENEMY_OBJECT"
}