{
	"type": "level",
	"version": "0.0.2",
	"layers": [
		{
			"type": "imagelayer",
			"name": "map",
			"image": "1948ff10-d14e-11ea-b95f-153ed0362bd0",
			"x": 0,
			"y": 0
		}
	],
	"viewport": {
		"x": 0,
		"y": 0,
		"zoom": 1
	},
	"collision": [],
	"event": "<xml xmlns=\"http://www.w3.org/1999/xhtml\"><variables><variable type=\"\" id=\"2M}WZv`W^O!rR4!o.A?{\">variable</variable></variables></xml>",
	"variables": [
		{
			"name": "variable",
			"description": "",
			"public": true,
			"init": false
		}
	],
	"userCode": {
		"global": [
			" "
		],
		"initialonReset": [
			"        "
		],
		"onReset": [
			"        game.var.socket = me.plugins.SocketIO;",
			"        game.var.socket.open(\"192.168.17.96:2000\");",
			"        ",
			"        this.sessionId = (Math.random()+1).toString(36).slice(2, 18);",
			"        var name = String(this.sessionId);",
			"        game.data.playerId = name;",
			"        game.var.socket.emit('gameReady', { id: game.data.playerId });",
			"        ",
			"        game.var.socket.onEvent('playerId', function(data){",
			"            game.data.playerId = data;",
			"        });",
			"        ",
			"        game.var.socket.onEvent('addMainPlayer', function (data) {",
			"            addMainPlayer(data);",
			"        });",
			"        ",
			"        game.var.socket.onEvent('addPlayer', function(data){",
			"            //console.log(data);",
			"            addOtherPlayer(data);",
			"        });",
			"        ",
			"        game.var.socket.onEvent('addPlayers', function(data){",
			"            for(var id in data) {",
			"                if(id != game.data.playerId) {",
			"                    addOtherPlayer(data[id]);",
			"                }",
			"            }",
			"        });",
			"        ",
			"        game.var.socket.onEvent('updatePlayerState', function(data){",
			"            updatePlayerState(data);",
			"        });",
			"        ",
			"        game.var.socket.onEvent('removePlayer', function(data){",
			"            if(game.data.playerId == data ){",
			"                window.location ='/';",
			"            }",
			"             removePlayers({id:data});",
			"        });",
			"        ",
			"        //PELURU TEMBAK",
			"        ",
			"        game.var.socket.onEvent('addpeluru', function(data){",
			"           addPelurulain(data);",
			"",
			"        });",
			"        ",
			"        game.var.socket.onEvent('addpelurus', function(data){",
			"            for(var id in data) {",
			"                if(id != game.data.playerId) {",
			"                    addPelurulain(data[id]);",
			"                }",
			"            }",
			"        });",
			"        ",
			"        game.var.socket.onEvent('updateposisipeluru', function(data){",
			"            //console.log(data);",
			"            updateposisipeluru(data);",
			"        });",
			"        ",
			"        game.var.socket.onEvent('hpupdate', function(data){",
			"            updatehp(data);",
			"        });",
			"        "
		],
		"onDestroy": [
			"        "
		],
		"userFunction": [
			"    "
		],
		"global-end": [
			" "
		]
	},
	"orientation": "orthogonal",
	"cols": 1,
	"rows": 1,
	"tileWidth": 1920,
	"tileHeight": 1080,
	"bg": true,
	"bgColor": "#ffffff"
}