{
	"type": "level",
	"version": "0.0.2",
	"layers": [
		{
			"type": "imagelayer",
			"name": "level_prison_lv1",
			"image": "bd633200-f651-11ea-a438-c59d97efd37f",
			"x": -200,
			"y": 0
		},
		{
			"type": "objectgroup",
			"name": "box_wall_b",
			"object": "416f8c80-f7cc-11ea-9f14-0fcb389df3d3",
			"x": 741,
			"y": 787,
			"properties": [],
			"modification": {}
		},
		{
			"type": "objectgroup",
			"name": "box_wall",
			"object": "1c19e6b0-f7cc-11ea-9f14-0fcb389df3d3",
			"x": 596,
			"y": 860,
			"properties": [],
			"modification": {}
		},
		{
			"type": "objectgroup",
			"name": "box_wall",
			"object": "1c19e6b0-f7cc-11ea-9f14-0fcb389df3d3",
			"x": 659,
			"y": 652,
			"properties": [],
			"modification": {}
		},
		{
			"type": "objectgroup",
			"name": "jeep_h",
			"object": "dad3e3d0-f7cc-11ea-9f14-0fcb389df3d3",
			"x": 256,
			"y": 686,
			"properties": [],
			"modification": {}
		},
		{
			"type": "objectgroup",
			"name": "jeep_v",
			"object": "2eed6e50-f7cd-11ea-9f14-0fcb389df3d3",
			"x": 973,
			"y": 599,
			"properties": [],
			"modification": {}
		},
		{
			"type": "objectgroup",
			"name": "box_wall",
			"object": "1c19e6b0-f7cc-11ea-9f14-0fcb389df3d3",
			"x": 366,
			"y": 262,
			"properties": [],
			"modification": {}
		},
		{
			"type": "objectgroup",
			"name": "box_wall_b",
			"object": "416f8c80-f7cc-11ea-9f14-0fcb389df3d3",
			"x": 266,
			"y": 542,
			"properties": [],
			"modification": {}
		},
		{
			"type": "objectgroup",
			"name": "box_wall_b",
			"object": "416f8c80-f7cc-11ea-9f14-0fcb389df3d3",
			"x": 266,
			"y": 463,
			"properties": [],
			"modification": {}
		},
		{
			"type": "objectgroup",
			"name": "box_wall_b",
			"object": "416f8c80-f7cc-11ea-9f14-0fcb389df3d3",
			"x": 460,
			"y": 372,
			"properties": [],
			"modification": {}
		},
		{
			"type": "objectgroup",
			"name": "box_wall_b",
			"object": "416f8c80-f7cc-11ea-9f14-0fcb389df3d3",
			"x": 459,
			"y": 466,
			"properties": [],
			"modification": {}
		},
		{
			"type": "objectgroup",
			"name": "box_wall_b",
			"object": "416f8c80-f7cc-11ea-9f14-0fcb389df3d3",
			"x": 556,
			"y": 466,
			"properties": [],
			"modification": {}
		},
		{
			"type": "objectgroup",
			"name": "box_wall",
			"object": "1c19e6b0-f7cc-11ea-9f14-0fcb389df3d3",
			"x": 913,
			"y": 256,
			"properties": [],
			"modification": {}
		},
		{
			"type": "objectgroup",
			"name": "box_wall",
			"object": "1c19e6b0-f7cc-11ea-9f14-0fcb389df3d3",
			"x": 1053,
			"y": 346,
			"properties": [],
			"modification": {}
		},
		{
			"type": "objectgroup",
			"name": "box_wall_b",
			"object": "416f8c80-f7cc-11ea-9f14-0fcb389df3d3",
			"x": 1430,
			"y": 456,
			"properties": [],
			"modification": {}
		},
		{
			"type": "objectgroup",
			"name": "box_wall_b",
			"object": "416f8c80-f7cc-11ea-9f14-0fcb389df3d3",
			"x": 1440,
			"y": 630,
			"properties": [],
			"modification": {}
		}
	],
	"viewport": {
		"x": 0,
		"y": 0,
		"zoom": 1
	},
	"collision": [
		{
			"type": "polyline",
			"points": [
				[130,169],
				[127,1083]
			]
		},
		{
			"type": "polyline",
			"points": [
				[132.57142857142844,166.28571428571428],
				[1768,185]
			]
		},
		{
			"type": "polyline",
			"points": [
				[
					null,
					null
				],
				[
					null,
					null
				]
			]
		},
		{
			"type": "polyline",
			"points": [
				[1771.5714285714284,190.28571428571428],
				[1770,1086]
			]
		},
		{
			"type": "polyline",
			"points": [
				[131,1077],
				[1915,1080]
			]
		},
		{
			"type": "rect",
			"points": [
				[167,634],
				[447,744]
			]
		},
		{
			"type": "rect",
			"points": [
				[991,599],
				[1101.5714285714284,863.2857142857142]
			]
		},
		{
			"type": "rect",
			"points": [
				[1591.5714285714284,653.2857142857143],
				[1698,903]
			]
		}
	],
	"event": "<xml xmlns=\"http://www.w3.org/1999/xhtml\"><variables><variable type=\"\" id=\"!Yy3c/I4j8j3Sxt4hjTi\">variable</variable></variables></xml>",
	"variables": [
		{
			"name": "variable",
			"description": "",
			"public": true,
			"init": false
		}
	],
	"userCode": {
		"global": [
			" "
		],
		"initialonReset": [
			"        "
		],
		"onReset": [
			"",
			"        var mainPlayer = me.pool.pull(\"heinzprisoner\", 600, 600);",
			"        me.game.world.addChild(mainPlayer, 100);",
			"        ",
			"        // var enemy = me.pool.pull(\"jerman_sniper\",900,900);",
			"        // me.game.world.addChild(enemy, 100);",
			"       ",
			"       "
		],
		"onDestroy": [
			"        "
		],
		"userFunction": [
			"    "
		],
		"global-end": [
			" "
		]
	},
	"orientation": "orthogonal",
	"cols": 1,
	"rows": 1,
	"tileWidth": 1920,
	"tileHeight": 1080,
	"bg": false,
	"bgColor": "#000000"
}