{
	"type": "text",
	"version": "0.0.2",
	"userCode": {
		"global": [
			"// (function(){",
			"//     game.collisionTypes = {",
			"//         RANGE_ATTACK: me.collision.types.USER << 0,",
			"//         SKILL: me.collision.types.USER << 1,",
			"//         PROJECTILE: me.collision.types.USER << 2,",
			"//         UTILITY: me.collision.types.USER << 3",
			"//     };",
			"// })();"
		]
	}
}