{
	"type": "text",
	"version": "0.0.2",
	"userCode": {
		"global": [
			"const unitRangeBehaviourAI = ",
			"`@fallback{",
			"\t@sequence{",
			"\t\tifDead",
			"\t\tdestroyed",
			"\t}",
			"    checkEffect",
			"\t@sequence{",
			"\t    haveTarget",
			"\t    isTargetAlive",
			"\t    isTargetInRange",
			"\t    attackTarget",
			"\t}",
			"\tfindTarget",
			"\tmoveForward",
			"}`;"
		]
	}
}