{
	"type": "object",
	"version": "0.0.2",
	"animations": {
		"list": [],
		"default": null
	},
	"images": {
		"list": [
			{
				"id": "cb049341-f651-11ea-a438-c59d97efd37f",
				"type": "image",
				"ext": "png",
				"image_name": "box_wall",
				"data_path": "image/env/box_wall.png",
				"folder_name": "env",
				"width": 161,
				"height": 105
			}
		]
	},
	"image": "cb049341-f651-11ea-a438-c59d97efd37f",
	"shapes": [
		{
			"type": "rect",
			"points": [
				[0,0],
				[161,105]
			]
		}
	],
	"collisionMask": [
		"NO_OBJECT"
	],
	"event": "<xml xmlns=\"http://www.w3.org/1999/xhtml\"><variables><variable type=\"\" id=\"(8OYH-lZ~^}Gu)dyJj=A\">variable</variable></variables></xml>",
	"variables": [
		{
			"name": "variable",
			"description": "",
			"public": true,
			"init": false
		}
	],
	"userCode": {
		"global": [
			""
		],
		"pre-super": [
			"        "
		],
		"init": [
			"        "
		],
		"update": [
			"        "
		],
		"onCollision": [
			"        "
		],
		"onDraw": [
			"        "
		],
		"onActivateEvent": [
			"        "
		],
		"onDeactivateEvent": [
			"        "
		],
		"userFunction": [
			"    "
		],
		"global-end": [
			""
		]
	},
	"frameWidth": 161,
	"frameHeight": 105,
	"width": 100,
	"height": 100,
	"hasBody": true,
	"alpha": 1,
	"flipX": false,
	"flipY": false,
	"floating": false,
	"relativeX": "0",
	"relativeY": "0",
	"anchorX": 0,
	"anchorY": 0,
	"followed": "NONE",
	"alwaysUpdate": false,
	"updateWhenPaused": false,
	"isPersistent": false,
	"click": false,
	"keyUp": false,
	"keyDown": false,
	"collisionCheck": false,
	"gravityX": 0,
	"gravityY": 0,
	"collisionType": "WORLD_SHAPE"
}