{
	"type": "object",
	"version": "0.0.2",
	"animations": {
		"list": [],
		"default": null
	},
	"images": {
		"list": [
			{
				"id": "cb049342-f651-11ea-a438-c59d97efd37f",
				"type": "image",
				"ext": "png",
				"image_name": "box_wall_b",
				"data_path": "image/env/box_wall_b.png",
				"folder_name": "env",
				"width": 86,
				"height": 79
			}
		]
	},
	"image": "cb049342-f651-11ea-a438-c59d97efd37f",
	"shapes": [
		{
			"type": "rect",
			"points": [
				[0,0],
				[86,79]
			]
		}
	],
	"collisionMask": [
		"ALL_OBJECT"
	],
	"event": "<xml xmlns=\"http://www.w3.org/1999/xhtml\"><variables><variable type=\"\" id=\"}A}W^li.{w^z:p/K+w@[\">variable</variable></variables></xml>",
	"variables": [
		{
			"name": "variable",
			"description": "",
			"public": true,
			"init": false
		}
	],
	"userCode": {
		"global": [
			" "
		],
		"pre-super": [
			"        "
		],
		"init": [
			"        this.body.force.set(0, 0);",
			"        this.body.friction.set(0.5, 0);",
			"        this.body.setMaxVelocity(0, 0);",
			"        this.body.falling = false;"
		],
		"update": [
			"        "
		],
		"onCollision": [
			"        if(other.body.collisionType === game.collisionTypes.PLAYER_OBJECT) {",
			"            console.log(\"kena player \");",
			"           ",
			"        }"
		],
		"onDraw": [
			"        "
		],
		"onActivateEvent": [
			"        "
		],
		"onDeactivateEvent": [
			"        "
		],
		"userFunction": [
			"    "
		],
		"global-end": [
			" "
		]
	},
	"frameWidth": 86,
	"frameHeight": 79,
	"width": 100,
	"height": 100,
	"hasBody": true,
	"alpha": 1,
	"flipX": false,
	"flipY": false,
	"floating": false,
	"relativeX": "0",
	"relativeY": "0",
	"anchorX": 0,
	"anchorY": 0,
	"followed": "NONE",
	"alwaysUpdate": false,
	"updateWhenPaused": false,
	"isPersistent": false,
	"click": false,
	"keyUp": false,
	"keyDown": false,
	"collisionCheck": true,
	"gravityX": 0,
	"gravityY": 0,
	"collisionType": "ACTION_OBJECT"
}